{
  "files": {
    "main.css": "./static/css/main.53f6ea88.chunk.css",
    "main.js": "./static/js/main.0ec96add.chunk.js",
    "main.js.map": "./static/js/main.0ec96add.chunk.js.map",
    "runtime-main.js": "./static/js/runtime-main.a63188a0.js",
    "runtime-main.js.map": "./static/js/runtime-main.a63188a0.js.map",
    "static/js/2.806f7441.chunk.js": "./static/js/2.806f7441.chunk.js",
    "static/js/2.806f7441.chunk.js.map": "./static/js/2.806f7441.chunk.js.map",
    "index.html": "./index.html",
    "static/css/main.53f6ea88.chunk.css.map": "./static/css/main.53f6ea88.chunk.css.map",
    "static/js/2.806f7441.chunk.js.LICENSE.txt": "./static/js/2.806f7441.chunk.js.LICENSE.txt"
  },
  "entrypoints": [
    "static/js/runtime-main.a63188a0.js",
    "static/js/2.806f7441.chunk.js",
    "static/css/main.53f6ea88.chunk.css",
    "static/js/main.0ec96add.chunk.js"
  ]
}